%YAML 1.1
%TAG !u! tag:unity3d.com,2011:
--- !u!1001 &5890452615813749650
PrefabInstance:
  m_ObjectHideFlags: 0
  serializedVersion: 2
  m_Modification:
    serializedVersion: 3
    m_TransformParent: {fileID: 0}
    m_Modifications:
    - target: {fileID: 7711987909400500625, guid: e33d641d40dca974489898c80541ef36, type: 3}
      propertyPath: m_Materials.Array.data[0]
      value: 
      objectReference: {fileID: 2100000, guid: 8fc48c4463a886b4bac958dbf0dee260, type: 2}
    - target: {fileID: 7711987909400500628, guid: e33d641d40dca974489898c80541ef36, type: 3}
      propertyPath: m_Name
      value: Bullet 1
      objectReference: {fileID: 0}
    - target: {fileID: 7711987909400500629, guid: e33d641d40dca974489898c80541ef36, type: 3}
      propertyPath: lifetime
      value: 6
      objectReference: {fileID: 0}
    - target: {fileID: 7711987909400500629, guid: e33d641d40dca974489898c80541ef36, type: 3}
      propertyPath: moveSpeed
      value: 5
      objectReference: {fileID: 0}
    - target: {fileID: 7711987909400500630, guid: e33d641d40dca974489898c80541ef36, type: 3}
      propertyPath: m_RootOrder
      value: 0
      objectReference: {fileID: 0}
    - target: {fileID: 7711987909400500630, guid: e33d641d40dca974489898c80541ef36, type: 3}
      propertyPath: m_LocalPosition.x
      value: 0
      objectReference: {fileID: 0}
    - target: {fileID: 7711987909400500630, guid: e33d641d40dca974489898c80541ef36, type: 3}
      propertyPath: m_LocalPosition.y
      value: 0
      objectReference: {fileID: 0}
    - target: {fileID: 7711987909400500630, guid: e33d641d40dca974489898c80541ef36, type: 3}
      propertyPath: m_LocalPosition.z
      value: 0
      objectReference: {fileID: 0}
    - target: {fileID: 7711987909400500630, guid: e33d641d40dca974489898c80541ef36, type: 3}
      propertyPath: m_LocalRotation.w
      value: 1
      objectReference: {fileID: 0}
    - target: {fileID: 7711987909400500630, guid: e33d641d40dca974489898c80541ef36, type: 3}
      propertyPath: m_LocalRotation.x
      value: 0
      objectReference: {fileID: 0}
    - target: {fileID: 7711987909400500630, guid: e33d641d40dca974489898c80541ef36, type: 3}
      propertyPath: m_LocalRotation.y
      value: 0
      objectReference: {fileID: 0}
    - target: {fileID: 7711987909400500630, guid: e33d641d40dca974489898c80541ef36, type: 3}
      propertyPath: m_LocalRotation.z
      value: 0
      objectReference: {fileID: 0}
    - target: {fileID: 7711987909400500630, guid: e33d641d40dca974489898c80541ef36, type: 3}
      propertyPath: m_LocalEulerAnglesHint.x
      value: 0
      objectReference: {fileID: 0}
    - target: {fileID: 7711987909400500630, guid: e33d641d40dca974489898c80541ef36, type: 3}
      propertyPath: m_LocalEulerAnglesHint.y
      value: 0
      objectReference: {fileID: 0}
    - target: {fileID: 7711987909400500630, guid: e33d641d40dca974489898c80541ef36, type: 3}
      propertyPath: m_LocalEulerAnglesHint.z
      value: 0
      objectReference: {fileID: 0}
    m_RemovedComponents: []
    m_RemovedGameObjects: []
    m_AddedGameObjects: []
    m_AddedComponents: []
  m_SourcePrefab: {fileID: 100100000, guid: e33d641d40dca974489898c80541ef36, type: 3}
