%YAML 1.1
%TAG !u! tag:unity3d.com,2011:
--- !u!1001 &5890452615813749650
PrefabInstance:
  m_ObjectHideFlags: 0
  serializedVersion: 2
  m_Modification:
    serializedVersion: 3
    m_TransformParent: {fileID: 0}
    m_Modifications:
    - target: {fileID: 1355318811998559052, guid: e33d641d40dca974489898c80541ef36, type: 3}
      propertyPath: previousCollider
      value: 
      objectReference: {fileID: 7907521180736368544}
    - target: {fileID: 7711987909400500625, guid: e33d641d40dca974489898c80541ef36, type: 3}
      propertyPath: m_Sprite
      value: 
      objectReference: {fileID: 7482667652216324306, guid: 8b290584714fe214b9e4a0d71a4d1cb3, type: 3}
    - target: {fileID: 7711987909400500625, guid: e33d641d40dca974489898c80541ef36, type: 3}
      propertyPath: m_Materials.Array.data[0]
      value: 
      objectReference: {fileID: 2100000, guid: 8fc48c4463a886b4bac958dbf0dee260, type: 2}
    - target: {fileID: 7711987909400500628, guid: e33d641d40dca974489898c80541ef36, type: 3}
      propertyPath: m_Name
      value: Bullet 2
      objectReference: {fileID: 0}
    - target: {fileID: 7711987909400500629, guid: e33d641d40dca974489898c80541ef36, type: 3}
      propertyPath: collider
      value: 
      objectReference: {fileID: 7907521180736368544}
    - target: {fileID: 7711987909400500629, guid: e33d641d40dca974489898c80541ef36, type: 3}
      propertyPath: lifetime
      value: 9
      objectReference: {fileID: 0}
    - target: {fileID: 7711987909400500629, guid: e33d641d40dca974489898c80541ef36, type: 3}
      propertyPath: moveSpeed
      value: 6
      objectReference: {fileID: 0}
    - target: {fileID: 7711987909400500629, guid: e33d641d40dca974489898c80541ef36, type: 3}
      propertyPath: prefabIndex
      value: 1
      objectReference: {fileID: 0}
    - target: {fileID: 7711987909400500630, guid: e33d641d40dca974489898c80541ef36, type: 3}
      propertyPath: m_RootOrder
      value: 0
      objectReference: {fileID: 0}
    - target: {fileID: 7711987909400500630, guid: e33d641d40dca974489898c80541ef36, type: 3}
      propertyPath: m_LocalScale.x
      value: 0.4
      objectReference: {fileID: 0}
    - target: {fileID: 7711987909400500630, guid: e33d641d40dca974489898c80541ef36, type: 3}
      propertyPath: m_LocalScale.y
      value: 0.7
      objectReference: {fileID: 0}
    - target: {fileID: 7711987909400500630, guid: e33d641d40dca974489898c80541ef36, type: 3}
      propertyPath: m_LocalPosition.x
      value: 0
      objectReference: {fileID: 0}
    - target: {fileID: 7711987909400500630, guid: e33d641d40dca974489898c80541ef36, type: 3}
      propertyPath: m_LocalPosition.y
      value: 0
      objectReference: {fileID: 0}
    - target: {fileID: 7711987909400500630, guid: e33d641d40dca974489898c80541ef36, type: 3}
      propertyPath: m_LocalPosition.z
      value: 0
      objectReference: {fileID: 0}
    - target: {fileID: 7711987909400500630, guid: e33d641d40dca974489898c80541ef36, type: 3}
      propertyPath: m_LocalRotation.w
      value: 1
      objectReference: {fileID: 0}
    - target: {fileID: 7711987909400500630, guid: e33d641d40dca974489898c80541ef36, type: 3}
      propertyPath: m_LocalRotation.x
      value: 0
      objectReference: {fileID: 0}
    - target: {fileID: 7711987909400500630, guid: e33d641d40dca974489898c80541ef36, type: 3}
      propertyPath: m_LocalRotation.y
      value: 0
      objectReference: {fileID: 0}
    - target: {fileID: 7711987909400500630, guid: e33d641d40dca974489898c80541ef36, type: 3}
      propertyPath: m_LocalRotation.z
      value: 0
      objectReference: {fileID: 0}
    - target: {fileID: 7711987909400500630, guid: e33d641d40dca974489898c80541ef36, type: 3}
      propertyPath: m_LocalEulerAnglesHint.x
      value: 0
      objectReference: {fileID: 0}
    - target: {fileID: 7711987909400500630, guid: e33d641d40dca974489898c80541ef36, type: 3}
      propertyPath: m_LocalEulerAnglesHint.y
      value: 0
      objectReference: {fileID: 0}
    - target: {fileID: 7711987909400500630, guid: e33d641d40dca974489898c80541ef36, type: 3}
      propertyPath: m_LocalEulerAnglesHint.z
      value: 0
      objectReference: {fileID: 0}
    m_RemovedComponents:
    - {fileID: 7711987909400500624, guid: e33d641d40dca974489898c80541ef36, type: 3}
    m_RemovedGameObjects: []
    m_AddedGameObjects: []
    m_AddedComponents:
    - targetCorrespondingSourceObject: {fileID: 7711987909400500628, guid: e33d641d40dca974489898c80541ef36, type: 3}
      insertIndex: -1
      addedObject: {fileID: 7907521180736368544}
  m_SourcePrefab: {fileID: 100100000, guid: e33d641d40dca974489898c80541ef36, type: 3}
--- !u!1 &4231531338650731014 stripped
GameObject:
  m_CorrespondingSourceObject: {fileID: 7711987909400500628, guid: e33d641d40dca974489898c80541ef36, type: 3}
  m_PrefabInstance: {fileID: 5890452615813749650}
  m_PrefabAsset: {fileID: 0}
--- !u!60 &7907521180736368544
PolygonCollider2D:
  m_ObjectHideFlags: 0
  m_CorrespondingSourceObject: {fileID: 0}
  m_PrefabInstance: {fileID: 0}
  m_PrefabAsset: {fileID: 0}
  m_GameObject: {fileID: 4231531338650731014}
  m_Enabled: 1
  m_Density: 1
  m_Material: {fileID: 0}
  m_IncludeLayers:
    serializedVersion: 2
    m_Bits: 0
  m_ExcludeLayers:
    serializedVersion: 2
    m_Bits: 0
  m_LayerOverridePriority: 0
  m_ForceSendLayers:
    serializedVersion: 2
    m_Bits: 4294967295
  m_ForceReceiveLayers:
    serializedVersion: 2
    m_Bits: 4294967295
  m_ContactCaptureLayers:
    serializedVersion: 2
    m_Bits: 4294967295
  m_CallbackLayers:
    serializedVersion: 2
    m_Bits: 4294967295
  m_IsTrigger: 1
  m_UsedByEffector: 0
  m_UsedByComposite: 0
  m_Offset: {x: 0, y: 0}
  m_SpriteTilingProperty:
    border: {x: 0, y: 0, z: 0, w: 0}
    pivot: {x: 0.5, y: 0.28866667}
    oldSize: {x: 1, y: 1}
    newSize: {x: 1, y: 1}
    adaptiveTilingThreshold: 0.5
    drawMode: 0
    adaptiveTiling: 0
  m_AutoTiling: 0
  m_Points:
    m_Paths:
    - - {x: 0, y: 0.5773587}
      - {x: -0.5, y: -0.28866667}
      - {x: 0.5, y: -0.28866667}
  m_UseDelaunayMesh: 0
