%YAML 1.1
%TAG !u! tag:unity3d.com,2011:
--- !u!221 &22100000
AnimatorOverrideController:
  m_ObjectHideFlags: 0
  m_CorrespondingSourceObject: {fileID: 0}
  m_PrefabInstance: {fileID: 0}
  m_PrefabAsset: {fileID: 0}
  m_Name: Enemy 1
  m_Controller: {fileID: 9100000, guid: 92e956e5094d80c4c808303c1024ca25, type: 2}
  m_Clips:
  - m_OriginalClip: {fileID: 7400000, guid: 64d06ae81f9c1a64286d7576d1b7297b, type: 2}
    m_OverrideClip: {fileID: 7400000, guid: 64d06ae81f9c1a64286d7576d1b7297b, type: 2}
