%YAML 1.1
%TAG !u! tag:unity3d.com,2011:
--- !u!78 &1
TagManager:
  serializedVersion: 2
  tags: []
  layers:
  - Default
  - TransparentFX
  - Ignore Raycast
  - World Map
  - Water
  - UI
  - Player
  - Wall
  - Hazard
  - Bomb
  - Activater Tile
  - Player Sensor
  - Electric Mist
  - Enemy
  - Bullet
  - Portal
  - Shooter Trap
  - Gel
  - Hell Portal
  - Enemy_Sandworm
  - Ground Sensor
  - Ghost Timed Bomb
  - Soccerball
  - Soccer Goal
  - Enemy_Sandworm Wall
  - 
  - 
  - 
  - 
  - 
  - 
  - 
  m_SortingLayers:
  - name: Back
    uniqueID: 1411535909
    locked: 0
  - name: Default
    uniqueID: 0
    locked: 0
  - name: Front
    uniqueID: 626255243
    locked: 0
  - name: UI
    uniqueID: 3155296179
    locked: 0
  m_RenderingLayers:
  - Default
  - 
  - 
  - 
  - 
  - 
  - 
  - 
  - 
  - 
  - 
  - 
  - 
  - 
  - 
  - 
  - 
  - 
  - 
  - 
  - 
  - 
  - 
  - 
  - 
  - 
  - 
  - 
  - 
  - 
  - 
  - 
