%YAML 1.1
%TAG !u! tag:unity3d.com,2011:
--- !u!1 &3197514381388507124
GameObject:
  m_ObjectHideFlags: 0
  m_CorrespondingSourceObject: {fileID: 0}
  m_PrefabInstance: {fileID: 0}
  m_PrefabAsset: {fileID: 0}
  serializedVersion: 6
  m_Component:
  - component: {fileID: 3197514381388507126}
  - component: {fileID: 3197514381388507127}
  - component: {fileID: 5808178939261278990}
  m_Layer: 0
  m_Name: World Piece
  m_TagString: Untagged
  m_Icon: {fileID: 0}
  m_NavMeshLayer: 0
  m_StaticEditorFlags: 0
  m_IsActive: 1
--- !u!4 &3197514381388507126
Transform:
  m_ObjectHideFlags: 0
  m_CorrespondingSourceObject: {fileID: 0}
  m_PrefabInstance: {fileID: 0}
  m_PrefabAsset: {fileID: 0}
  m_GameObject: {fileID: 3197514381388507124}
  m_LocalRotation: {x: -0, y: -0, z: -0, w: 1}
  m_LocalPosition: {x: 0, y: 0, z: 0}
  m_LocalScale: {x: 1, y: 1, z: 1}
  m_ConstrainProportionsScale: 0
  m_Children: []
  m_Father: {fileID: 0}
  m_RootOrder: 0
  m_LocalEulerAnglesHint: {x: 0, y: 0, z: 0}
--- !u!114 &3197514381388507127
MonoBehaviour:
  m_ObjectHideFlags: 0
  m_CorrespondingSourceObject: {fileID: 0}
  m_PrefabInstance: {fileID: 0}
  m_PrefabAsset: {fileID: 0}
  m_GameObject: {fileID: 3197514381388507124}
  m_Enabled: 1
  m_EditorHideFlags: 0
  m_Script: {fileID: 11500000, guid: 313701dad56fd824f8cd9aa46bfccfd9, type: 3}
  m_Name: 
  m_EditorClassIdentifier: 
  trs: {fileID: 3197514381388507126}
  tilemapsParent: {fileID: 3197514381388507126}
  location: {x: 0, y: 0}
  worldBoundsRect:
    serializedVersion: 2
    x: 0
    y: 0
    width: 0
    height: 0
  piecesToLoadAndUnloadWithMe: []
--- !u!156049354 &5808178939261278990
Grid:
  m_ObjectHideFlags: 0
  m_CorrespondingSourceObject: {fileID: 0}
  m_PrefabInstance: {fileID: 0}
  m_PrefabAsset: {fileID: 0}
  m_GameObject: {fileID: 3197514381388507124}
  m_Enabled: 1
  m_CellSize: {x: 1, y: 1, z: 1}
  m_CellGap: {x: 0, y: 0, z: 0}
  m_CellLayout: 0
  m_CellSwizzle: 0
