%YAML 1.1
%TAG !u! tag:unity3d.com,2011:
--- !u!1001 &1071483870751526596
PrefabInstance:
  m_ObjectHideFlags: 0
  serializedVersion: 2
  m_Modification:
    serializedVersion: 3
    m_TransformParent: {fileID: 0}
    m_Modifications:
    - target: {fileID: 2134501566096572385, guid: e3595fdff4858074382c65c87bdc5930, type: 3}
      propertyPath: m_LocalScale.x
      value: 6
      objectReference: {fileID: 0}
    - target: {fileID: 2134501566096572385, guid: e3595fdff4858074382c65c87bdc5930, type: 3}
      propertyPath: m_LocalScale.y
      value: 6
      objectReference: {fileID: 0}
    - target: {fileID: 2134501566096572385, guid: e3595fdff4858074382c65c87bdc5930, type: 3}
      propertyPath: m_LocalScale.z
      value: 3
      objectReference: {fileID: 0}
    - target: {fileID: 5472820524724848493, guid: e3595fdff4858074382c65c87bdc5930, type: 3}
      propertyPath: 'm_Materials.Array.data[0]'
      value: 
      objectReference: {fileID: 2100000, guid: f7aaf4e7ff043314f8a3e53aee5619f3, type: 2}
    - target: {fileID: 7428946044476295856, guid: e3595fdff4858074382c65c87bdc5930, type: 3}
      propertyPath: lifetime
      value: 2.3
      objectReference: {fileID: 0}
    - target: {fileID: 7428946044476295856, guid: e3595fdff4858074382c65c87bdc5930, type: 3}
      propertyPath: canExplode
      value: 0
      objectReference: {fileID: 0}
    - target: {fileID: 7428946044476295856, guid: e3595fdff4858074382c65c87bdc5930, type: 3}
      propertyPath: explodeOnHit
      value: 0
      objectReference: {fileID: 0}
    - target: {fileID: 7619676849029274472, guid: e3595fdff4858074382c65c87bdc5930, type: 3}
      propertyPath: m_Simulated
      value: 0
      objectReference: {fileID: 0}
    - target: {fileID: 7861799231229696026, guid: e3595fdff4858074382c65c87bdc5930, type: 3}
      propertyPath: m_Name
      value: Timed Poison Bomb
      objectReference: {fileID: 0}
    - target: {fileID: 7861799231229696485, guid: e3595fdff4858074382c65c87bdc5930, type: 3}
      propertyPath: m_Enabled
      value: 0
      objectReference: {fileID: 0}
    - target: {fileID: 7861799231229696487, guid: e3595fdff4858074382c65c87bdc5930, type: 3}
      propertyPath: m_RootOrder
      value: 0
      objectReference: {fileID: 0}
    - target: {fileID: 7861799231229696487, guid: e3595fdff4858074382c65c87bdc5930, type: 3}
      propertyPath: m_LocalPosition.x
      value: 0
      objectReference: {fileID: 0}
    - target: {fileID: 7861799231229696487, guid: e3595fdff4858074382c65c87bdc5930, type: 3}
      propertyPath: m_LocalPosition.y
      value: 0
      objectReference: {fileID: 0}
    - target: {fileID: 7861799231229696487, guid: e3595fdff4858074382c65c87bdc5930, type: 3}
      propertyPath: m_LocalPosition.z
      value: 0
      objectReference: {fileID: 0}
    - target: {fileID: 7861799231229696487, guid: e3595fdff4858074382c65c87bdc5930, type: 3}
      propertyPath: m_LocalRotation.w
      value: 1
      objectReference: {fileID: 0}
    - target: {fileID: 7861799231229696487, guid: e3595fdff4858074382c65c87bdc5930, type: 3}
      propertyPath: m_LocalRotation.x
      value: 0
      objectReference: {fileID: 0}
    - target: {fileID: 7861799231229696487, guid: e3595fdff4858074382c65c87bdc5930, type: 3}
      propertyPath: m_LocalRotation.y
      value: 0
      objectReference: {fileID: 0}
    - target: {fileID: 7861799231229696487, guid: e3595fdff4858074382c65c87bdc5930, type: 3}
      propertyPath: m_LocalRotation.z
      value: 0
      objectReference: {fileID: 0}
    - target: {fileID: 7861799231229696487, guid: e3595fdff4858074382c65c87bdc5930, type: 3}
      propertyPath: m_LocalEulerAnglesHint.x
      value: 0
      objectReference: {fileID: 0}
    - target: {fileID: 7861799231229696487, guid: e3595fdff4858074382c65c87bdc5930, type: 3}
      propertyPath: m_LocalEulerAnglesHint.y
      value: 0
      objectReference: {fileID: 0}
    - target: {fileID: 7861799231229696487, guid: e3595fdff4858074382c65c87bdc5930, type: 3}
      propertyPath: m_LocalEulerAnglesHint.z
      value: 0
      objectReference: {fileID: 0}
    m_RemovedComponents: []
    m_RemovedGameObjects: []
    m_AddedGameObjects: []
    m_AddedComponents: []
  m_SourcePrefab: {fileID: 100100000, guid: e3595fdff4858074382c65c87bdc5930, type: 3}
